<Response [200]>
{'_content': b'{"page":2,"per_page":6,"total":12,"total_pages":2,"data":[{"id":7,"email":"michael.lawson@reqres.in","first_name":"Michael","last_name":"Lawson","avatar":"https://s3.amazonaws.com/uifaces/faces/twitter/follettkyle/128.jpg"},{"id":8,"email":"lindsay.ferguson@reqres.in","first_name":"Lindsay","last_name":"Ferguson","avatar":"https://s3.amazonaws.com/uifaces/faces/twitter/araa3185/128.jpg"},{"id":9,"email":"tobias.funke@reqres.in","first_name":"Tobias","last_name":"Funke","avatar":"https://s3.amazonaws.com/uifaces/faces/twitter/vivekprvr/128.jpg"},{"id":10,"email":"byron.fields@reqres.in","first_name":"Byron","last_name":"Fields","avatar":"https://s3.amazonaws.com/uifaces/faces/twitter/russoedu/128.jpg"},{"id":11,"email":"george.edwards@reqres.in","first_name":"George","last_name":"Edwards","avatar":"https://s3.amazonaws.com/uifaces/faces/twitter/mrmoiree/128.jpg"},{"id":12,"email":"rachel.howell@reqres.in","first_name":"Rachel","last_name":"Howell","avatar":"https://s3.amazonaws.com/uifaces/faces/twitter/hebertialmeida/128.jpg"}]}', '_content_consumed': True, '_next': None, 'status_code': 200, 'headers': {'Date': 'Thu, 30 Jan 2020 11:18:15 GMT', 'Content-Type': 'application/json; charset=utf-8', 'Transfer-Encoding': 'chunked', 'Connection': 'keep-alive', 'Set-Cookie': '__cfduid=d611d5a31151d6d4648352506ca6603291580383095; expires=Sat, 29-Feb-20 11:18:15 GMT; path=/; domain=.reqres.in; HttpOnly; SameSite=Lax; Secure', 'X-Powered-By': 'Express', 'Access-Control-Allow-Origin': '*', 'Etag': 'W/"414-k36Lu9tCb0XMJeh2/UG19C4xbw4"', 'Via': '1.1 vegur', 'Cache-Control': 'max-age=14400', 'CF-Cache-Status': 'HIT', 'Age': '760', 'Expect-CT': 'max-age=604800, report-uri="https://report-uri.cloudflare.com/cdn-cgi/beacon/expect-ct"', 'Vary': 'Accept-Encoding', 'Server': 'cloudflare', 'CF-RAY': '55d30b4d8c2fdd9f-SIN', 'Content-Encoding': 'gzip'}, 'raw': <urllib3.response.HTTPResponse object at 0x7f395bb84f60>, 'url': 'https://reqres.in/api/users?page=2', 'encoding': 'utf-8', 'history': [], 'reason': 'OK', 'cookies': <RequestsCookieJar[Cookie(version=0, name='__cfduid', value='d611d5a31151d6d4648352506ca6603291580383095', port=None, port_specified=False, domain='.reqres.in', domain_specified=True, domain_initial_dot=True, path='/', path_specified=True, secure=True, expires=1582975095, discard=False, comment=None, comment_url=None, rest={'HttpOnly': None, 'SameSite': 'Lax'}, rfc2109=False)]>, 'elapsed': datetime.timedelta(0, 0, 32570), 'request': <PreparedRequest [GET]>, 'connection': <requests.adapters.HTTPAdapter object at 0x7f395bbd04a8>}
